[
  {
    "id": 1,
    "url": "https://carrefourbr.vtexassets.com/arquivos/ids/19808587-800-auto?width=400&height=400&aspect=true",
    "title": "Example Product Name"
  },
  {
    "id": 2,
    "url": "https://i.pinimg.com/474x/a4/c5/52/a4c5520f8628fcadbaeb89d28469e47b.jpg",
    "title": "Teclast F6 Plus 13.3 inch Laptop 360° Flip-and-fold"
  },
  {
    "id": 3,
    "url": "https://i.pinimg.com/474x/79/17/1d/79171d6c2d9583286a5b2ed4a2155301.jpg",
    "title": "ASUS ZenBook 13 13.3 Laptop Intel Core i7"
  },
  {
    "id": 4,
    "url": "https://www.naijatechguide.com/wp-content/uploads/2020/08/BMAX-X15-400x400-1.jpg",
    "title": "BMax X15 Laptop Price, Specs and Best Deals - NaijaTechGuide"
  },
  {
    "id": 5,
    "url": "https://i.pinimg.com/474x/79/17/1d/79171d6c2d9583286a5b2ed4a2155301.jpg",
    "title": "ASUS ZenBook 13 13.3 Laptop Intel Core i7 8GB RAM 256GB SSD Gold"
  },
  {
    "id": 6,
    "url": "https://www.naijatechguide.com/wp-content/uploads/2020/08/BMAX-X15-400x400-1.jpg",
    "title": "BMax X15 Laptop "
  },
  {
    "id": 7,
    "url": "https://picsum.photos/400?image=556",
    "title": "Example Product Name"
  },
  {
    "id": 8,
    "url": "https://picsum.photos/400?image=557",
    "title": "Example Product Name"
  },
  {
    "id": 9,
    "url": "https://picsum.photos/400?image=558",
    "title": "Example Product Name"
  },
  {
    "id": 10,
    "url": "https://picsum.photos/400?image=559",
    "title": "Example Product Name"
  },
  {
    "id": 11,
    "url": "https://picsum.photos/400?image=560",
    "title": "Example Product Name"
  },
  {
    "id": 12,
    "url": "https://picsum.photos/400?image=582",
    "title": "Example Product Name"
  },
  {
    "id": 13,
    "url": "https://picsum.photos/400?image=562",
    "title": "Example Product Name"
  },
  {
    "id": 14,
    "url": "https://picsum.photos/400?image=563",
    "title": "Example Product Name"
  },
  {
    "id": 15,
    "url": "https://picsum.photos/400?image=564",
    "title": "Example Product Name"
  },
  {
    "id": 16,
    "url": "https://picsum.photos/400?image=565",
    "title": "Example Product Name"
  },
  {
    "id": 17,
    "url": "https://picsum.photos/400?image=566",
    "title": "Example Product Name"
  },
  {
    "id": 18,
    "url": "https://picsum.photos/400?image=567",
    "title": "Example Product Name"
  },
  {
    "id": 19,
    "url": "https://picsum.photos/400?image=568",
    "title": "Example Product Name"
  },
  {
    "id": 20,
    "url": "https://picsum.photos/400?image=569",
    "title": "Example Product Name"
  },
  {
    "id": 21,
    "url": "https://picsum.photos/400?image=570",
    "title": "Example Product Name"
  },
  {
    "id": 22,
    "url": "https://picsum.photos/400?image=571",
    "title": "Example Product Name"
  },
  {
    "id": 23,
    "url": "https://picsum.photos/400?image=572",
    "title": "Example Product Name"
  },
  {
    "id": 24,
    "url": "https://picsum.photos/400?image=573",
    "title": "Example Product Name"
  },
  {
    "id": 25,
    "url": "https://picsum.photos/400?image=574",
    "title": "Example Product Name"
  },
  {
    "id": 26,
    "url": "https://picsum.photos/400?image=575",
    "title": "Example Product Name"
  },
  {
    "id": 27,
    "url": "https://picsum.photos/400?image=576",
    "title": "Example Product Name"
  },
  {
    "id": 28,
    "url": "https://picsum.photos/400?image=577",
    "title": "Example Product Name"
  },
  {
    "id": 29,
    "url": "https://picsum.photos/400?image=583",
    "title": "Example Product Name"
  },
  {
    "id": 30,
    "url": "https://picsum.photos/400?image=579",
    "title": "Example Product Name"
  },
  {
    "id": 31,
    "url": "https://picsum.photos/400?image=580",
    "title": "Example Product Name"
  },
  {
    "id": 32,
    "url": "https://picsum.photos/400?image=581",
    "title": "Example Product Name"
  }
]
